<?xml version="1.0" encoding="utf-8"?>
<!-- Generator: Adobe Illustrator 17.0.0, SVG Export Plug-In . SVG Version: 6.00 Build 0)  -->
<!DOCTYPE svg PUBLIC "-//W3C//DTD SVG 1.1//EN" "http://www.w3.org/Graphics/SVG/1.1/DTD/svg11.dtd">
<svg version="1.1" id="Layer_1" xmlns="http://www.w3.org/2000/svg" xmlns:xlink="http://www.w3.org/1999/xlink" x="0px" y="0px"
	 width="68.81px" height="44.79px" viewBox="0 0 68.81 44.79" enable-background="new 0 0 68.81 44.79" xml:space="preserve">
<path fill="#FFFFFF" d="M68,0L40.99,38.01c-1.09,1.61-4.41,5.78-6.59,5.78c-2.17,0-5.49-4.17-6.59-5.79l-27-38L0,0.58l26.99,37.99
	c0.43,0.64,4.32,6.22,7.41,6.22c3.09,0,6.98-5.58,7.41-6.21l27-38L68,0z"/>
</svg>
